{
    "results": [
        {
            "vote_count": 2591,
            "id": 181808,
            "video": false,
            "vote_average": 7.3,
            "title": "Star Wars: The Last Jedi",
            "popularity": 627.678198,
            "poster_path": "/xGWVjewoXnJhvxKW619cMzppJDQ.jpg",
            "original_language": "en",
            "original_title": "Star Wars: The Last Jedi",
            "genre_ids": [
                28,
                12,
                14,
                878
            ],
            "backdrop_path": "/5Iw7zQTHVRBOYpA0V6z0yypOPZh.jpg",
            "adult": false,
            "overview": "Rey develops her newly discovered abilities with the guidance of Luke Skywalker, who is unsettled by the strength of her powers. Meanwhile, the Resistance prepares to do battle with the First Order.",
            "release_date": "2017-12-13"
        },
        {
            "vote_count": 926,
            "id": 353486,
            "video": false,
            "vote_average": 6.3,
            "title": "Jumanji: Welcome to the Jungle",
            "popularity": 575.096237,
            "poster_path": "/p2gr6MseDvYSMyKK4k1FmqaImpl.jpg",
            "original_language": "en",
            "original_title": "Jumanji: Welcome to the Jungle",
            "genre_ids": [
                28,
                12,
                35,
                10751
            ],
            "backdrop_path": "/rz3TAyd5kmiJmozp3GUbYeB5Kep.jpg",
            "adult": false,
            "overview": "The tables are turned as four teenagers are sucked into Jumanji's world - pitted against rhinos, black mambas and an endless variety of jungle traps and puzzles. To survive, they'll play as characters from the game.",
            "release_date": "2017-12-08"
        },
        {
            "vote_count": 205,
            "id": 460793,
            "video": false,
            "vote_average": 5.9,
            "title": "Olaf's Frozen Adventure",
            "popularity": 464.384525,
            "poster_path": "/47pLZ1gr63WaciDfHCpmoiXJlVr.jpg",
            "original_language": "en",
            "original_title": "Olaf's Frozen Adventure",
            "genre_ids": [
                12,
                16,
                35,
                10751,
                14,
                10402
            ],
            "backdrop_path": "/woCxv9kua5uqtRNaiWUBDzrgZnH.jpg",
            "adult": false,
            "overview": "Olaf is on a mission to harness the best holiday traditions for Anna, Elsa, and Kristoff.",
            "release_date": "2017-10-27"
        },
        {
            "vote_count": 1016,
            "id": 354912,
            "video": false,
            "vote_average": 7.5,
            "title": "Coco",
            "popularity": 401.599916,
            "poster_path": "/eKi8dIrr8voobbaGzDpe8w0PVbC.jpg",
            "original_language": "en",
            "original_title": "Coco",
            "genre_ids": [
                12,
                16,
                10751
            ],
            "backdrop_path": "/askg3SMvhqEl4OL52YuvdtY40Yb.jpg",
            "adult": false,
            "overview": "Despite his family’s baffling generations-old ban on music, Miguel dreams of becoming an accomplished musician like his idol, Ernesto de la Cruz. Desperate to prove his talent, Miguel finds himself in the stunning and colorful Land of the Dead following a mysterious chain of events. Along the way, he meets charming trickster Hector, and together, they set off on an extraordinary journey to unlock the real story behind Miguel's family history.",
            "release_date": "2017-10-27"
        },
        {
            "vote_count": 353,
            "id": 316029,
            "video": false,
            "vote_average": 8.1,
            "title": "The Greatest Showman",
            "popularity": 304.675435,
            "poster_path": "/dfhztJRiElqmYW4kpvjYe1gENsD.jpg",
            "original_language": "en",
            "original_title": "The Greatest Showman",
            "genre_ids": [
                36,
                18,
                10402
            ],
            "backdrop_path": "/zpq404Sk7qQ7N4x3xOeNgp74GtU.jpg",
            "adult": false,
            "overview": "The story of American showman P.T. Barnum, founder of the circus that became the famous traveling Ringling Bros. and Barnum & Bailey Circus.",
            "release_date": "2017-12-20"
        },
        {
            "vote_count": 164,
            "id": 399055,
            "video": false,
            "vote_average": 6.8,
            "title": "The Shape of Water",
            "popularity": 242.027702,
            "poster_path": "/iLYLADGA5oKGM92Ns1j9CDgk3iI.jpg",
            "original_language": "en",
            "original_title": "The Shape of Water",
            "genre_ids": [
                18,
                14,
                10749
            ],
            "backdrop_path": "/bAISaVhsaoyyQMZ55cpTwCdzek4.jpg",
            "adult": false,
            "overview": "An other-worldly story, set against the backdrop of Cold War era America circa 1962, where a mute janitor working at a lab falls in love with an amphibious man being held captive there and devises a plan to help him escape.",
            "release_date": "2017-12-01"
        },
        {
            "vote_count": 166,
            "id": 353616,
            "video": false,
            "vote_average": 6.3,
            "title": "Pitch Perfect 3",
            "popularity": 216.068514,
            "poster_path": "/hQriQIpHUeh66I89gypFXtqEuVq.jpg",
            "original_language": "en",
            "original_title": "Pitch Perfect 3",
            "genre_ids": [
                35
            ],
            "backdrop_path": "/1qIzlhLGPSm6TxlvXBWe0Q5er7O.jpg",
            "adult": false,
            "overview": "After the highs of winning the world championships, the Bellas find themselves split apart and discovering there aren't job prospects for making music with your mouth. But when they get the chance to reunite for an overseas USO tour, this group of awesome nerds will come together to make some music, and some questionable decisions, one last time.",
            "release_date": "2017-12-21"
        },
        {
            "vote_count": 167,
            "id": 371638,
            "video": false,
            "vote_average": 7.4,
            "title": "The Disaster Artist",
            "popularity": 198.155826,
            "poster_path": "/uCH6FOFsDW6pfvbbmIIswuvuNtM.jpg",
            "original_language": "en",
            "original_title": "The Disaster Artist",
            "genre_ids": [
                18,
                35,
                36
            ],
            "backdrop_path": "/bAI7aPHQcvSZXvt7L11kMJdS0Gm.jpg",
            "adult": false,
            "overview": "An aspiring actor in Hollywood meets an enigmatic stranger by the name of Tommy Wiseau, the meeting leads the actor down a path nobody could have predicted; creating the worst movie ever made.",
            "release_date": "2017-11-30"
        },
        {
            "vote_count": 2145,
            "id": 141052,
            "video": false,
            "vote_average": 6.5,
            "title": "Justice League",
            "popularity": 169.281004,
            "poster_path": "/9rtrRGeRnL0JKtu9IMBWsmlmmZz.jpg",
            "original_language": "en",
            "original_title": "Justice League",
            "genre_ids": [
                28,
                12,
                14,
                878
            ],
            "backdrop_path": "/o5T8rZxoWSBMYwjsUFUqTt6uMQB.jpg",
            "adult": false,
            "overview": "Fueled by his restored faith in humanity and inspired by Superman's selfless act, Bruce Wayne and Diana Prince assemble a team of metahumans consisting of Barry Allen, Arthur Curry, and Victor Stone to face the catastrophic threat of Steppenwolf and the Parademons who are on the hunt for three Mother Boxes on Earth.",
            "release_date": "2017-11-15"
        },
        {
            "vote_count": 76,
            "id": 317091,
            "video": false,
            "vote_average": 4.8,
            "title": "November Criminals",
            "popularity": 151.762531,
            "poster_path": "/m2JxGgarPvtemudLZ1CB6gLJeUb.jpg",
            "original_language": "en",
            "original_title": "November Criminals",
            "genre_ids": [
                80,
                18,
                9648
            ],
            "backdrop_path": "/8j089OjNSlmsDqt9vrAAvj021Em.jpg",
            "adult": false,
            "overview": "Addison Schacht investigates the murder of his friend Kevin, with the help of Pheobe, and they discover the truth is darker than they ever imagined.",
            "release_date": "2017-12-08"
        },
        {
            "vote_count": 120,
            "id": 271404,
            "video": false,
            "vote_average": 5.2,
            "title": "Beyond Skyline",
            "popularity": 149.960981,
            "poster_path": "/lQUJZIm2nQj4mIsm0sUcznhMdpD.jpg",
            "original_language": "en",
            "original_title": "Beyond Skyline",
            "genre_ids": [
                28,
                878
            ],
            "backdrop_path": "/m5jvdwlI24XpFDSX79o97z76jis.jpg",
            "adult": false,
            "overview": "A tough-as-nails detective embarks on a relentless pursuit to free his son from a nightmarish alien warship.",
            "release_date": "2017-10-20"
        },
        {
            "vote_count": 21,
            "id": 446354,
            "video": false,
            "vote_average": 6,
            "title": "The Post",
            "popularity": 140.705615,
            "poster_path": "/5765ORvdKVX5bWmhEjjiOqLk3TH.jpg",
            "original_language": "en",
            "original_title": "The Post",
            "genre_ids": [
                18,
                36
            ],
            "backdrop_path": "/8sb4aBST28vN3rBz704XJczS0Ld.jpg",
            "adult": false,
            "overview": "A cover-up that spanned four U.S. Presidents pushed the country's first female newspaper publisher and a hard-driving editor to join an unprecedented battle between journalist and government. Inspired by true events.",
            "release_date": "2017-12-22"
        },
        {
            "vote_count": 15,
            "id": 324562,
            "video": false,
            "vote_average": 4.9,
            "title": "The Tribes of Palos Verdes",
            "popularity": 131.025164,
            "poster_path": "/8w4JecmVtqcSMk4mdiHURzISsYz.jpg",
            "original_language": "en",
            "original_title": "The Tribes of Palos Verdes",
            "genre_ids": [
                18
            ],
            "backdrop_path": "/y4tXfE2Cyvlw7BaTHxW1GnZSrO7.jpg",
            "adult": false,
            "overview": "When the situation at her idyllic Palos Verdes home turns volatile, young Medina attempts to surf her way to happiness.",
            "release_date": "2017-12-01"
        },
        {
            "vote_count": 21,
            "id": 406563,
            "video": false,
            "vote_average": 6.9,
            "title": "Insidious: The Last Key",
            "popularity": 129.996277,
            "poster_path": "/nb9fc9INMg8kQ8L7sE7XTNsZnUX.jpg",
            "original_language": "en",
            "original_title": "Insidious: The Last Key",
            "genre_ids": [
                53,
                27,
                9648
            ],
            "backdrop_path": "/auSRjQyVLw212IjATAbO3KOyxZg.jpg",
            "adult": false,
            "overview": "Parapsychologist Elise Rainier and her team travel to Five Keys, N.M., to investigate a man's claim of a haunting. Terror soon strikes when Rainier realizes that the house he lives in was her family's old home.",
            "release_date": "2018-01-03"
        },
        {
            "vote_count": 98,
            "id": 364689,
            "video": false,
            "vote_average": 6.9,
            "title": "Ferdinand",
            "popularity": 126.958232,
            "poster_path": "/rMm94JsRfcOPiPVsTRcBiiVBOhz.jpg",
            "original_language": "en",
            "original_title": "Ferdinand",
            "genre_ids": [
                16,
                35,
                10751
            ],
            "backdrop_path": "/sTOhZruocNubL0HxjvdouwCEL9I.jpg",
            "adult": false,
            "overview": "Ferdinand, a little bull, prefers sitting quietly under a cork tree just smelling the flowers versus jumping around, snorting, and butting heads with other bulls. As Ferdinand grows big and strong, his temperament remains mellow, but one day five men come to choose the \"biggest, fastest, roughest bull\" for the bullfights in Madrid and Ferdinand is mistakenly chosen.  Based on the classic 1936 children's book by Munro Leaf.",
            "release_date": "2017-12-09"
        },
        {
            "vote_count": 810,
            "id": 400106,
            "video": false,
            "vote_average": 6.3,
            "title": "Bright",
            "popularity": 115.849757,
            "poster_path": "/whkT53Sv2vKAUiknQ13pqcWaPXB.jpg",
            "original_language": "en",
            "original_title": "Bright",
            "genre_ids": [
                28,
                80,
                14
            ],
            "backdrop_path": "/X8ExoREJv55ePIWRUqUrQXbLAN.jpg",
            "adult": false,
            "overview": "In an alternate present-day where magical creatures live among us, two L.A. cops become embroiled in a prophesied turf battle.",
            "release_date": "2017-12-22"
        },
        {
            "vote_count": 137,
            "id": 429189,
            "video": false,
            "vote_average": 6.1,
            "title": "Wonder Wheel",
            "popularity": 113.691488,
            "poster_path": "/fPXn8SW4pa4kJErAIAJLmb3Znns.jpg",
            "original_language": "en",
            "original_title": "Wonder Wheel",
            "genre_ids": [
                18
            ],
            "backdrop_path": "/jGYeZzcAG0df2nWRLJW2CiweyyG.jpg",
            "adult": false,
            "overview": "The story of four characters whose lives intertwine amid the hustle and bustle of the Coney Island amusement park in the 1950s: Ginny, an emotionally volatile former actress now working as a waitress in a clam house; Humpty, Ginny’s rough-hewn carousel operator husband; Mickey, a handsome young lifeguard who dreams of becoming a playwright; and Carolina, Humpty’s long-estranged daughter, who is now hiding out from gangsters at her father’s apartment.",
            "release_date": "2017-12-01"
        },
        {
            "vote_count": 18,
            "id": 384680,
            "video": false,
            "vote_average": 5.8,
            "title": "Hostiles",
            "popularity": 107.65694,
            "poster_path": "/bmKjNacOLiX6aKInzqgtNQNtwBJ.jpg",
            "original_language": "en",
            "original_title": "Hostiles",
            "genre_ids": [
                18,
                12,
                37
            ],
            "backdrop_path": "/21l3eDzcQtdifF93VLKtpxRye5x.jpg",
            "adult": false,
            "overview": "The story centers on a legendary Native American-hating Army captain, nearing retirement in 1892, who is given one last assignment: to escort a Cheyenne chief and his family through dangerous territory back to his Montana reservation.",
            "release_date": "2017-12-22"
        },
        {
            "vote_count": 80,
            "id": 301337,
            "video": false,
            "vote_average": 5.6,
            "title": "Downsizing",
            "popularity": 107.570628,
            "poster_path": "/uLlmtN33rMuimRq6bu0OoNzCGGs.jpg",
            "original_language": "en",
            "original_title": "Downsizing",
            "genre_ids": [
                878,
                18,
                35
            ],
            "backdrop_path": "/5RzW9i3vFsXCPLqYwgNJV1QuSgk.jpg",
            "adult": false,
            "overview": "A kindly occupational therapist undergoes a new procedure to be shrunken to four inches tall so that he and his wife can help save the planet and afford a nice lifestyle at the same time.",
            "release_date": "2017-12-22"
        },
        {
            "vote_count": 57,
            "id": 396371,
            "video": false,
            "vote_average": 6.8,
            "title": "Molly's Game",
            "popularity": 89.650114,
            "poster_path": "/5YC8iVPxvRrz53FdfdejDgUUk2k.jpg",
            "original_language": "en",
            "original_title": "Molly's Game",
            "genre_ids": [
                18
            ],
            "backdrop_path": "/rHcBZ6ZKCe4FalWHyvBGsyMsh0k.jpg",
            "adult": false,
            "overview": "Molly Bloom, a young skier and former Olympic hopeful becomes a successful entrepreneur (and a target of an FBI investigation) when she establishes a high-stakes, international poker game.",
            "release_date": "2017-12-21"
        }
    ],
    "page": 1,
    "total_results": 872,
    "dates": {
        "maximum": "2018-01-11",
        "minimum": "2017-11-23"
    },
    "total_pages": 44
}
